OpIFI,FechaVencimiento,FechaPago,CuotaQcCancela,MontoPagadoMO,SaldoInsolutoMO,CodigoMora
338638,05-09-2012,05-09-2012,1,1463131,54521902,1
338638,05-10-2012,05-10-2012,2,1463131,67664431,1
338638,05-11-2012,05-11-2012,3,1463131,55513171,1
338638,05-12-2012,05-12-2012,4,1463131,57470715,1
338638,07-01-2013,,5,0,57470715,2
338638,05-02-2013,,6,0,57470715,3
338638,05-03-2013,,7,0,57470715,4
442117,05-10-2016,04-10-2016,17,2240703,4398762,1
442117,08-11-2016,,18,0,4398762,2
